<?xml version="1.0" encoding="UTF-8" standalone="no"?>
<!-- Created with Inkscape (http://www.inkscape.org/) -->

<svg
   xmlns:dc="http://purl.org/dc/elements/1.1/"
   xmlns:cc="http://creativecommons.org/ns#"
   xmlns:rdf="http://www.w3.org/1999/02/22-rdf-syntax-ns#"
   xmlns:svg="http://www.w3.org/2000/svg"
   xmlns="http://www.w3.org/2000/svg"
   xmlns:sodipodi="http://sodipodi.sourceforge.net/DTD/sodipodi-0.dtd"
   xmlns:inkscape="http://www.inkscape.org/namespaces/inkscape"
   width="744.09448819"
   height="1052.3622047"
   id="svg3069"
   version="1.1"
   inkscape:version="0.48.5 r10040"
   sodipodi:docname="04-branch.svg">
  <defs
     id="defs3071">
    <marker
       inkscape:stockid="Arrow1Lend"
       orient="auto"
       refY="0"
       refX="0"
       id="Arrow1Lend"
       style="overflow:visible">
      <path
         inkscape:connector-curvature="0"
         id="path3952"
         d="M 0,0 5,-5 -12.5,0 5,5 0,0 z"
         style="fill-rule:evenodd;stroke:#000000;stroke-width:1pt"
         transform="matrix(-0.8,0,0,-0.8,-10,0)" />
    </marker>
    <marker
       inkscape:stockid="Arrow1Lend"
       orient="auto"
       refY="0"
       refX="0"
       id="Arrow1Lend-3"
       style="overflow:visible">
      <path
         inkscape:connector-curvature="0"
         id="path3952-6"
         d="M 0,0 5,-5 -12.5,0 5,5 0,0 z"
         style="fill-rule:evenodd;stroke:#000000;stroke-width:1pt"
         transform="matrix(-0.8,0,0,-0.8,-10,0)" />
    </marker>
    <marker
       inkscape:stockid="Arrow1Lend"
       orient="auto"
       refY="0"
       refX="0"
       id="Arrow1Lend-5"
       style="overflow:visible">
      <path
         inkscape:connector-curvature="0"
         id="path3952-3"
         d="M 0,0 5,-5 -12.5,0 5,5 0,0 z"
         style="fill-rule:evenodd;stroke:#000000;stroke-width:1pt"
         transform="matrix(-0.8,0,0,-0.8,-10,0)" />
    </marker>
    <marker
       inkscape:stockid="Arrow1Lend"
       orient="auto"
       refY="0"
       refX="0"
       id="Arrow1Lend-2"
       style="overflow:visible">
      <path
         inkscape:connector-curvature="0"
         id="path3952-9"
         d="M 0,0 5,-5 -12.5,0 5,5 0,0 z"
         style="fill-rule:evenodd;stroke:#000000;stroke-width:1pt"
         transform="matrix(-0.8,0,0,-0.8,-10,0)" />
    </marker>
    <marker
       inkscape:stockid="Arrow1Lend"
       orient="auto"
       refY="0"
       refX="0"
       id="Arrow1Lend-27"
       style="overflow:visible">
      <path
         inkscape:connector-curvature="0"
         id="path3952-0"
         d="M 0,0 5,-5 -12.5,0 5,5 0,0 z"
         style="fill-rule:evenodd;stroke:#000000;stroke-width:1pt"
         transform="matrix(-0.8,0,0,-0.8,-10,0)" />
    </marker>
    <marker
       inkscape:stockid="Arrow1Lend"
       orient="auto"
       refY="0"
       refX="0"
       id="Arrow1Lend-36"
       style="overflow:visible">
      <path
         inkscape:connector-curvature="0"
         id="path3952-06"
         d="M 0,0 5,-5 -12.5,0 5,5 0,0 z"
         style="fill-rule:evenodd;stroke:#000000;stroke-width:1pt"
         transform="matrix(-0.8,0,0,-0.8,-10,0)" />
    </marker>
    <marker
       inkscape:stockid="Arrow1Lend"
       orient="auto"
       refY="0"
       refX="0"
       id="Arrow1Lend-6"
       style="overflow:visible">
      <path
         inkscape:connector-curvature="0"
         id="path3952-1"
         d="M 0,0 5,-5 -12.5,0 5,5 0,0 z"
         style="fill-rule:evenodd;stroke:#000000;stroke-width:1pt"
         transform="matrix(-0.8,0,0,-0.8,-10,0)" />
    </marker>
  </defs>
  <sodipodi:namedview
     id="base"
     pagecolor="#ffffff"
     bordercolor="#ffffff"
     borderopacity="0.0"
     inkscape:pageopacity="0.0"
     inkscape:pageshadow="0"
     inkscape:zoom="0.12374369"
     inkscape:cx="350"
     inkscape:cy="1452.8451"
     inkscape:document-units="px"
     inkscape:current-layer="layer1"
     showgrid="false"
     inkscape:window-width="1022"
     inkscape:window-height="576"
     inkscape:window-x="0"
     inkscape:window-y="22"
     inkscape:window-maximized="1" />
  <metadata
     id="metadata3074">
    <rdf:RDF>
      <cc:Work
         rdf:about="">
        <dc:format>image/svg+xml</dc:format>
        <dc:type
           rdf:resource="http://purl.org/dc/dcmitype/StillImage" />
        <dc:title></dc:title>
      </cc:Work>
    </rdf:RDF>
  </metadata>
  <g
     inkscape:label="Layer 1"
     inkscape:groupmode="layer"
     id="layer1">
    <rect
       style="fill:#ffff00;fill-opacity:1;stroke:none"
       id="rect3077"
       width="577.14288"
       height="391.42859"
       x="-107.14286"
       y="255.21935" />
    <g
       transform="matrix(1.6475058,0,0,1.4899776,-313.23376,-397.93748)"
       id="g3143">
      <path
         d="m 282.85715,886.64789 c 0,33.13708 -49.24868,60 -110,60 -60.75133,0 -110.000003,-26.86292 -110.000003,-60 0,-33.13709 49.248673,-60 110.000003,-60 60.75132,0 110,26.86291 110,60 z"
         sodipodi:ry="60"
         sodipodi:rx="110"
         sodipodi:cy="886.64789"
         sodipodi:cx="172.85715"
         id="path3135"
         style="fill:#00ffff;fill-opacity:1;stroke:#00ffff;stroke-width:0.63825858;stroke-linejoin:bevel;stroke-miterlimit:4;stroke-opacity:1;stroke-dasharray:1.91477569, 0.63825856;stroke-dashoffset:0"
         sodipodi:type="arc" />
      <path
         d="m 337.14287,938.07648 c 0,28.40321 -30.70048,51.42857 -68.57143,51.42857 -37.87095,0 -68.57142,-23.02536 -68.57142,-51.42857 0,-28.40322 30.70047,-51.42857 68.57142,-51.42857 37.87095,0 68.57143,23.02535 68.57143,51.42857 z"
         sodipodi:ry="51.42857"
         sodipodi:rx="68.571426"
         sodipodi:cy="938.07648"
         sodipodi:cx="268.57144"
         id="path3137"
         style="fill:#00ffff;fill-opacity:1;stroke:#00ffff;stroke-width:0.63825858;stroke-linejoin:bevel;stroke-miterlimit:4;stroke-opacity:1;stroke-dasharray:1.91477569, 0.63825856;stroke-dashoffset:0"
         sodipodi:type="arc" />
      <path
         d="m 397.14287,835.2193 c 0,20.51343 -44.13193,37.14286 -98.57143,37.14286 -54.43949,0 -98.57142,-16.62943 -98.57142,-37.14286 0,-20.51343 44.13193,-37.14286 98.57142,-37.14286 54.4395,0 98.57143,16.62943 98.57143,37.14286 z"
         sodipodi:ry="37.142857"
         sodipodi:rx="98.571426"
         sodipodi:cy="835.2193"
         sodipodi:cx="298.57144"
         id="path3139"
         style="fill:#00ffff;fill-opacity:1;stroke:#00ffff;stroke-width:0.63825858;stroke-linejoin:bevel;stroke-miterlimit:4;stroke-opacity:1;stroke-dasharray:1.91477569, 0.63825856;stroke-dashoffset:0"
         sodipodi:type="arc" />
      <path
         d="m 494.28572,913.79077 c 0,29.1922 -64.59892,52.85714 -144.28572,52.85714 -79.6868,0 -144.28572,-23.66494 -144.28572,-52.85714 0,-29.19219 64.59892,-52.85714 144.28572,-52.85714 79.6868,0 144.28572,23.66495 144.28572,52.85714 z"
         sodipodi:ry="52.857143"
         sodipodi:rx="144.28572"
         sodipodi:cy="913.79077"
         sodipodi:cx="350"
         id="path3141"
         style="fill:#00ffff;fill-opacity:1;stroke:#00ffff;stroke-width:0.63825858;stroke-linejoin:bevel;stroke-miterlimit:4;stroke-opacity:1;stroke-dasharray:1.91477569, 0.63825856;stroke-dashoffset:0"
         sodipodi:type="arc" />
    </g>
    <text
       xml:space="preserve"
       style="font-size:48px;font-style:normal;font-variant:normal;font-weight:normal;font-stretch:normal;text-align:start;line-height:125%;letter-spacing:0px;word-spacing:0px;writing-mode:lr-tb;text-anchor:start;fill:#000000;fill-opacity:1;stroke:none;font-family:DejaVu Sans;-inkscape-font-specification:Sans"
       x="622.85712"
       y="869.50507"
       id="text3109"
       sodipodi:linespacing="125%"><tspan
         sodipodi:role="line"
         id="tspan3111"
         x="622.85712"
         y="869.50507">Working folder (tree)</tspan></text>
    <text
       xml:space="preserve"
       style="font-size:48px;font-style:normal;font-variant:normal;font-weight:normal;font-stretch:normal;text-align:start;line-height:125%;letter-spacing:0px;word-spacing:0px;writing-mode:lr-tb;text-anchor:start;fill:#000000;fill-opacity:1;stroke:none;font-family:DejaVu Sans;-inkscape-font-specification:Sans"
       x="-37.142857"
       y="855.21936"
       id="text3113"
       sodipodi:linespacing="125%"><tspan
         sodipodi:role="line"
         id="tspan3115"
         x="-37.142857"
         y="855.21936">talk.md</tspan><tspan
         sodipodi:role="line"
         x="-37.142857"
         y="915.21936"
         id="tspan3117">terminology.md</tspan><tspan
         sodipodi:role="line"
         x="-37.142857"
         y="975.21936"
         id="tspan3119">pix/</tspan></text>
    <text
       xml:space="preserve"
       style="font-size:48px;font-style:normal;font-variant:normal;font-weight:normal;font-stretch:normal;text-align:start;line-height:125%;letter-spacing:0px;word-spacing:0px;writing-mode:lr-tb;text-anchor:start;fill:#000000;fill-opacity:1;stroke:none;font-family:DejaVu Sans;-inkscape-font-specification:Sans"
       x="100.75698"
       y="726.05914"
       id="text3158"
       sodipodi:linespacing="125%"><tspan
         sodipodi:role="line"
         id="tspan3160"
         x="100.75698"
         y="726.05914">Index (for &quot;master&quot; branch)</tspan></text>
    <g
       id="g3179"
       transform="translate(573.36054,-3380.6996)">
      <text
         sodipodi:linespacing="125%"
         id="text3183"
         y="-193.35211"
         x="-48.57143"
         style="font-size:48px;font-style:normal;font-variant:normal;font-weight:normal;font-stretch:normal;text-align:start;line-height:125%;letter-spacing:0px;word-spacing:0px;writing-mode:lr-tb;text-anchor:start;fill:#000000;fill-opacity:1;stroke:none;font-family:DejaVu Sans;-inkscape-font-specification:Sans"
         xml:space="preserve"><tspan
           y="-193.35211"
           x="-48.57143"
           id="tspan3185"
           sodipodi:role="line">talk.md</tspan><tspan
           id="tspan3187"
           y="-133.35211"
           x="-48.57143"
           sodipodi:role="line">terminology.md</tspan></text>
      <rect
         y="-384.78067"
         x="-117.14286"
         height="365.71429"
         width="580"
         id="rect3161"
         style="fill:none;stroke:#000000;stroke-width:4;stroke-linejoin:bevel;stroke-miterlimit:4;stroke-opacity:1;stroke-dasharray:none;stroke-dashoffset:0" />
      <text
         sodipodi:linespacing="125%"
         id="text3163"
         y="-333.35211"
         x="-57.142857"
         style="font-size:48px;font-style:normal;font-variant:normal;font-weight:normal;font-stretch:normal;text-align:start;line-height:125%;letter-spacing:0px;word-spacing:0px;writing-mode:lr-tb;text-anchor:start;fill:#000000;fill-opacity:1;stroke:none;font-family:DejaVu Sans;-inkscape-font-specification:Sans"
         xml:space="preserve"><tspan
           y="-333.35211"
           x="-57.142857"
           id="tspan3165"
           sodipodi:role="line">171930d</tspan></text>
    </g>
    <text
       xml:space="preserve"
       style="font-size:48px;font-style:normal;font-variant:normal;font-weight:normal;font-stretch:normal;text-align:start;line-height:125%;letter-spacing:0px;word-spacing:0px;writing-mode:lr-tb;text-anchor:start;fill:#000000;fill-opacity:1;stroke:none;font-family:DejaVu Sans;-inkscape-font-specification:Sans"
       x="1308.7804"
       y="-201.55826"
       id="text3167"
       sodipodi:linespacing="125%"><tspan
         sodipodi:role="line"
         id="tspan3169"
         x="1308.7804"
         y="-201.55826">HEAD (latest) commit</tspan></text>
    <flowRoot
       xml:space="preserve"
       id="flowRoot3171"
       style="fill:black;stroke:none;stroke-opacity:1;stroke-width:1px;stroke-linejoin:miter;stroke-linecap:butt;fill-opacity:1;font-family:DejaVu Sans;font-style:normal;font-weight:normal;font-size:48px;line-height:125%;letter-spacing:0px;word-spacing:0px;-inkscape-font-specification:Sans;font-stretch:normal;font-variant:normal;text-anchor:start;text-align:start;writing-mode:lr"><flowRegion
         id="flowRegion3173"><rect
           id="rect3175"
           width="14.285714"
           height="57.142857"
           x="-328.57144"
           y="-476.20926" /></flowRegion><flowPara
         id="flowPara3177"></flowPara></flowRoot>    <g
       id="g3252"
       transform="translate(533.36054,-2286.9853)">
      <text
         sodipodi:linespacing="125%"
         id="text3187"
         y="-672.78064"
         x="-34.285713"
         style="font-size:48px;font-style:normal;font-variant:normal;font-weight:normal;font-stretch:normal;text-align:start;line-height:125%;letter-spacing:0px;word-spacing:0px;writing-mode:lr-tb;text-anchor:start;fill:#000000;fill-opacity:1;stroke:none;font-family:DejaVu Sans;-inkscape-font-specification:Sans"
         xml:space="preserve"><tspan
           y="-672.78064"
           x="-34.285713"
           id="tspan3189"
           sodipodi:role="line">talk.md</tspan><tspan
           id="tspan3191"
           y="-612.78064"
           x="-34.285713"
           sodipodi:role="line">[pix/00-beforegit.svg</tspan><tspan
           id="tspan3193"
           y="-552.78064"
           x="-34.285713"
           sodipodi:role="line">pix/01-init.svg</tspan></text>
      <rect
         y="-824.20923"
         x="-80"
         height="342.85715"
         width="611.42859"
         id="rect3195"
         style="fill:none;stroke:#000000;stroke-width:4;stroke-linejoin:bevel;stroke-miterlimit:4;stroke-opacity:1;stroke-dasharray:none;stroke-dashoffset:0" />
      <text
         sodipodi:linespacing="125%"
         id="text3199"
         y="-769.92352"
         x="-37.142857"
         style="font-size:48px;font-style:normal;font-variant:normal;font-weight:normal;font-stretch:normal;text-align:start;line-height:125%;letter-spacing:0px;word-spacing:0px;writing-mode:lr-tb;text-anchor:start;fill:#000000;fill-opacity:1;stroke:none;font-family:DejaVu Sans;-inkscape-font-specification:Sans"
         xml:space="preserve"><tspan
           y="-769.92352"
           x="-37.142857"
           id="tspan3201"
           sodipodi:role="line">c97b722578</tspan></text>
    </g>
    <path
       style="fill:none;stroke:#000000;stroke-width:6;stroke-linecap:butt;stroke-linejoin:miter;stroke-miterlimit:4;stroke-opacity:1;stroke-dasharray:none;marker-start:none;marker-end:url(#Arrow1Lend)"
       d="m 732.05135,-3149.766 -2.54586,-214.2857"
       id="path3943"
       inkscape:connector-curvature="0" />
    <flowRoot
       xml:space="preserve"
       id="flowRoot3227"
       style="fill:black;stroke:none;stroke-opacity:1;stroke-width:1px;stroke-linejoin:miter;stroke-linecap:butt;fill-opacity:1;font-family:DejaVu Sans;font-style:normal;font-weight:normal;font-size:48px;line-height:125%;letter-spacing:0px;word-spacing:0px;-inkscape-font-specification:Sans;font-stretch:normal;font-variant:normal;text-anchor:start;text-align:start;writing-mode:lr"><flowRegion
         id="flowRegion3229"><rect
           id="rect3231"
           width="42.857143"
           height="114.28571"
           x="488.57144"
           y="-27.637817" /></flowRegion><flowPara
         id="flowPara3233"></flowPara></flowRoot>    <g
       id="g3245"
       transform="translate(533.36054,-2286.9853)">
      <text
         sodipodi:linespacing="125%"
         id="text3235"
         y="-33.352104"
         x="-5.7142844"
         style="font-size:48px;font-style:normal;font-variant:normal;font-weight:normal;font-stretch:normal;text-align:start;line-height:125%;letter-spacing:0px;word-spacing:0px;writing-mode:lr-tb;text-anchor:start;fill:#000000;fill-opacity:1;stroke:none;font-family:DejaVu Sans;-inkscape-font-specification:Sans"
         xml:space="preserve"><tspan
           y="-33.352104"
           x="-5.7142844"
           id="tspan3237"
           sodipodi:role="line">talks.md</tspan></text>
      <rect
         y="-293.35211"
         x="-82.85714"
         height="371.42856"
         width="620"
         id="rect3239"
         style="fill:none;stroke:#000000;stroke-width:4;stroke-linejoin:bevel;stroke-miterlimit:4;stroke-opacity:1;stroke-dasharray:none;stroke-dashoffset:0" />
      <text
         sodipodi:linespacing="125%"
         id="text3241"
         y="-224.78067"
         x="-37.142857"
         style="font-size:48px;font-style:normal;font-variant:normal;font-weight:normal;font-stretch:normal;text-align:start;line-height:125%;letter-spacing:0px;word-spacing:0px;writing-mode:lr-tb;text-anchor:start;fill:#000000;fill-opacity:1;stroke:none;font-family:DejaVu Sans;-inkscape-font-specification:Sans"
         xml:space="preserve"><tspan
           y="-224.78067"
           x="-37.142857"
           id="tspan3243"
           sodipodi:role="line">1ef6d6952</tspan></text>
    </g>
    <path
       style="fill:none;stroke:#000000;stroke-width:6;stroke-linecap:butt;stroke-linejoin:miter;stroke-miterlimit:4;stroke-opacity:1;stroke-dasharray:none;marker-start:none;marker-end:url(#Arrow1Lend)"
       d="m 726.33707,-2607.4803 -2.54586,-151.4286"
       id="path3943-7"
       inkscape:connector-curvature="0" />
    <g
       id="g3314"
       transform="translate(533.36054,-1688.9751)">
      <rect
         y="-289.12039"
         x="-88.893425"
         height="404.061"
         width="630.33521"
         id="rect3304"
         style="fill:none;stroke:#000000;stroke-width:4;stroke-linejoin:bevel;stroke-miterlimit:4;stroke-opacity:1;stroke-dasharray:none;stroke-dashoffset:0" />
      <text
         sodipodi:linespacing="125%"
         id="text3306"
         y="-22.440125"
         x="8.0812206"
         style="font-size:48px;font-style:normal;font-variant:normal;font-weight:normal;font-stretch:normal;text-align:start;line-height:125%;letter-spacing:0px;word-spacing:0px;writing-mode:lr-tb;text-anchor:start;fill:#000000;fill-opacity:1;stroke:none;font-family:DejaVu Sans;-inkscape-font-specification:Sans"
         xml:space="preserve"><tspan
           y="-22.440125"
           x="8.0812206"
           id="tspan3308"
           sodipodi:role="line">talks.md</tspan></text>
      <text
         sodipodi:linespacing="125%"
         id="text3310"
         y="-227.63782"
         x="-42.857143"
         style="font-size:48px;font-style:normal;font-variant:normal;font-weight:normal;font-stretch:normal;text-align:start;line-height:125%;letter-spacing:0px;word-spacing:0px;writing-mode:lr-tb;text-anchor:start;fill:#000000;fill-opacity:1;stroke:none;font-family:DejaVu Sans;-inkscape-font-specification:Sans"
         xml:space="preserve"><tspan
           y="-227.63782"
           x="-42.857143"
           id="tspan3312"
           sodipodi:role="line">190aca7c</tspan></text>
    </g>
    <path
       style="fill:none;stroke:#000000;stroke-width:6;stroke-linecap:butt;stroke-linejoin:miter;stroke-miterlimit:4;stroke-opacity:1;stroke-dasharray:none;marker-start:none;marker-end:url(#Arrow1Lend)"
       d="M 731.63723,-2018.0414 729.09137,-2169.47"
       id="path3943-7-5"
       inkscape:connector-curvature="0" />
    <g
       id="g3398">
      <rect
         y="-1291.1918"
         x="452.54834"
         height="379.81735"
         width="638.41638"
         id="rect3386"
         style="fill:none;stroke:#000000;stroke-width:4;stroke-linejoin:bevel;stroke-miterlimit:4;stroke-opacity:1;stroke-dasharray:none;stroke-dashoffset:0" />
      <text
         sodipodi:linespacing="125%"
         id="text3388"
         y="-1224.7806"
         x="502.85715"
         style="font-size:48px;font-style:normal;font-variant:normal;font-weight:normal;font-stretch:normal;text-align:start;line-height:125%;letter-spacing:0px;word-spacing:0px;writing-mode:lr-tb;text-anchor:start;fill:#000000;fill-opacity:1;stroke:none;font-family:DejaVu Sans;-inkscape-font-specification:Sans"
         xml:space="preserve"><tspan
           y="-1224.7806"
           x="502.85715"
           id="tspan3390"
           sodipodi:role="line">bd6e3934</tspan></text>
    </g>
    <g
       id="g3403"
       transform="translate(-8.5714286,245.71429)">
      <rect
         y="-779.06641"
         x="457.14285"
         height="480"
         width="702.85712"
         id="rect3392"
         style="fill:none;stroke:#000000;stroke-width:4;stroke-linejoin:bevel;stroke-miterlimit:4;stroke-opacity:1;stroke-dasharray:none;stroke-dashoffset:0" />
      <text
         sodipodi:linespacing="125%"
         id="text3394"
         y="-700.78064"
         x="502.85715"
         style="font-size:48px;font-style:normal;font-variant:normal;font-weight:normal;font-stretch:normal;text-align:start;line-height:125%;letter-spacing:0px;word-spacing:0px;writing-mode:lr-tb;text-anchor:start;fill:#000000;fill-opacity:1;stroke:none;font-family:DejaVu Sans;-inkscape-font-specification:Sans"
         xml:space="preserve"><tspan
           y="-700.78064"
           x="502.85715"
           id="tspan3396"
           sodipodi:role="line">55c68d199</tspan></text>
    </g>
    <path
       style="fill:none;stroke:#000000;stroke-width:6;stroke-linecap:butt;stroke-linejoin:miter;stroke-miterlimit:4;stroke-opacity:1;stroke-dasharray:none;marker-start:none;marker-end:url(#Arrow1Lend)"
       d="m 718.27669,-1377.6378 -2.54586,-151.4286"
       id="path3943-7-5-1"
       inkscape:connector-curvature="0" />
    <path
       style="fill:none;stroke:#000000;stroke-width:6;stroke-linecap:butt;stroke-linejoin:miter;stroke-miterlimit:4;stroke-opacity:1;stroke-dasharray:none;marker-start:none;marker-end:url(#Arrow1Lend)"
       d="m 752.5624,-640.49495 -2.54586,-151.4286"
       id="path3943-7-5-9"
       inkscape:connector-curvature="0" />
    <g
       id="g3460">
      <rect
         y="-1081.9236"
         x="-411.42856"
         height="405.71429"
         width="645.71429"
         id="rect3443"
         style="fill:none;stroke:#000000;stroke-width:4;stroke-linejoin:bevel;stroke-miterlimit:4;stroke-opacity:1;stroke-dasharray:none;stroke-dashoffset:0" />
      <text
         sodipodi:linespacing="125%"
         id="text3445"
         y="-1019.0664"
         x="-348.57144"
         style="font-size:48px;font-style:normal;font-variant:normal;font-weight:normal;font-stretch:normal;text-align:start;line-height:125%;letter-spacing:0px;word-spacing:0px;writing-mode:lr-tb;text-anchor:start;fill:#000000;fill-opacity:1;stroke:none;font-family:DejaVu Sans;-inkscape-font-specification:Sans"
         xml:space="preserve"><tspan
           y="-1019.0664"
           x="-348.57144"
           id="tspan3447"
           sodipodi:role="line">51ce0305</tspan></text>
    </g>
    <g
       id="g3455">
      <rect
         y="-447.63782"
         x="-422.85715"
         height="451.42856"
         width="668.57141"
         id="rect3449"
         style="fill:#51ce03;stroke:#000000;stroke-width:4;stroke-linejoin:bevel;stroke-miterlimit:4;stroke-opacity:1;stroke-dasharray:none;stroke-dashoffset:0;fill-opacity:0.01960784" />
      <text
         sodipodi:linespacing="125%"
         id="text3451"
         y="-370.49496"
         x="-365.71429"
         style="font-size:48px;font-style:normal;font-variant:normal;font-weight:normal;font-stretch:normal;text-align:start;line-height:125%;letter-spacing:0px;word-spacing:0px;writing-mode:lr-tb;text-anchor:start;fill:#000000;fill-opacity:1;stroke:none;font-family:DejaVu Sans;-inkscape-font-specification:Sans"
         xml:space="preserve"><tspan
           y="-370.49496"
           x="-365.71429"
           id="tspan3453"
           sodipodi:role="line">b96d374</tspan></text>
    </g>
    <path
       style="fill:none;stroke:#000000;stroke-width:6;stroke-linecap:butt;stroke-linejoin:miter;stroke-miterlimit:4;stroke-opacity:1;stroke-dasharray:none;marker-start:none;marker-end:url(#Arrow1Lend)"
       d="m -93.151886,-503.35209 -2.54586,-151.4286"
       id="path3943-7-5-9-2"
       inkscape:connector-curvature="0" />
    <path
       style="fill:none;stroke:#000000;stroke-width:5.99999952;stroke-linecap:butt;stroke-linejoin:miter;stroke-miterlimit:4;stroke-opacity:1;stroke-dasharray:none;marker-start:none;marker-end:url(#Arrow1Lend)"
       d="M -120.58451,-1097.66 412.59604,-2320.6679"
       id="path3943-7-5-1-8"
       inkscape:connector-curvature="0" />
    <text
       xml:space="preserve"
       style="font-size:48px;font-style:normal;font-variant:normal;font-weight:normal;font-stretch:normal;text-align:start;line-height:125%;letter-spacing:0px;word-spacing:0px;writing-mode:lr-tb;text-anchor:start;fill:#000000;fill-opacity:1;stroke:none;font-family:DejaVu Sans;-inkscape-font-specification:Sans"
       x="-937.42157"
       y="-240.63307"
       id="text3513"
       sodipodi:linespacing="125%"><tspan
         sodipodi:role="line"
         id="tspan3515"
         x="-937.42157"
         y="-240.63307">HEAD of </tspan><tspan
         sodipodi:role="line"
         x="-937.42157"
         y="-180.63307"
         id="tspan3517">terminology branch</tspan></text>
  </g>
</svg>
